Version 4
SHEET 1 904 680
WIRE -224 -208 -304 -208
WIRE -80 -208 -144 -208
WIRE 32 -208 -80 -208
WIRE 160 -208 112 -208
WIRE 240 -208 160 -208
WIRE 416 -208 320 -208
WIRE 528 -208 416 -208
WIRE 704 -208 608 -208
WIRE 784 -208 704 -208
WIRE -80 -112 -80 -208
WIRE 0 -112 -80 -112
WIRE 160 -96 160 -208
WIRE 160 -96 64 -96
WIRE 0 -80 -64 -80
WIRE 416 -80 416 -208
WIRE 448 -80 416 -80
WIRE 704 -64 704 -208
WIRE 704 -64 512 -64
WIRE 448 -48 400 -48
WIRE -304 -16 -304 -208
WIRE -304 128 -304 64
WIRE -64 128 -64 -80
WIRE 400 128 400 -48
FLAG -640 336 +V
IOPIN -640 336 In
FLAG -528 336 -V
IOPIN -528 336 In
FLAG -640 416 0
FLAG -528 416 0
FLAG 32 -64 -V
IOPIN 32 -64 In
FLAG 32 -128 +V
IOPIN 32 -128 In
FLAG -304 128 0
FLAG 784 -208 Vout
IOPIN 784 -208 Out
FLAG -64 128 0
FLAG 480 -32 -V
IOPIN 480 -32 In
FLAG 480 -96 +V
IOPIN 480 -96 In
FLAG 400 128 0
SYMBOL voltage -640 320 R0
WINDOW 123 0 0 Left 2
WINDOW 39 0 0 Left 2
SYMATTR InstName V1
SYMATTR Value 10
SYMBOL voltage -528 320 R0
WINDOW 123 0 0 Left 2
WINDOW 39 0 0 Left 2
SYMATTR InstName V2
SYMATTR Value -10
SYMBOL res -128 -224 R90
WINDOW 0 0 56 VBottom 2
WINDOW 3 32 56 VTop 2
SYMATTR InstName R1
SYMATTR Value 1k
SYMBOL Opamps\\LT1001 160 128 R0
SYMATTR InstName U1
SYMBOL voltage -304 -32 R0
WINDOW 123 0 0 Left 2
WINDOW 39 0 0 Left 2
SYMATTR InstName V3
SYMATTR Value SINE(0 5 0.1)
SYMBOL res 128 -224 R90
WINDOW 0 0 56 VBottom 2
WINDOW 3 32 56 VTop 2
SYMATTR InstName R2
SYMATTR Value 680
SYMBOL res 336 -224 R90
WINDOW 0 0 56 VBottom 2
WINDOW 3 32 56 VTop 2
SYMATTR InstName R3
SYMATTR Value 1k
SYMBOL res 624 -224 R90
WINDOW 0 0 56 VBottom 2
WINDOW 3 32 56 VTop 2
SYMATTR InstName R4
SYMATTR Value 1k
SYMBOL Opamps\\LT1001 512 160 R0
SYMATTR InstName U2
SYMBOL Opamps\\LT1492 32 -160 R0
SYMATTR InstName U3
SYMBOL Opamps\\LT1492 480 -128 R0
SYMATTR InstName U4
TEXT -712 440 Left 2 !.tran 0 100 0 1
