PCBNEW-LibModule-V1  2021-06-04 16:51:42
# encoding utf-8
Units mm
$INDEX
18259106
$EndINDEX
$MODULE 18259106
Po 0 0 0 15 60ba4c0e 00000000 ~~
Li 18259106
Cd 1825910-6-2
Kw Switch
Sc 0
At STD
AR 
Op 0 0 0
T0 3.250 2.25 1.27 1.27 0 0.254 N V 21 N "S**"
T1 3.250 2.25 1.27 1.27 0 0.254 N I 21 N "18259106"
DS 0.255 -0.745 6.245 -0.745 0.2 24
DS 6.245 -0.745 6.245 5.245 0.2 24
DS 6.245 5.245 0.255 5.245 0.2 24
DS 0.255 5.245 0.255 -0.745 0.2 24
DS -1.77 -1.77 8.27 -1.77 0.1 24
DS 8.27 -1.77 8.27 6.27 0.1 24
DS 8.27 6.27 -1.77 6.27 0.1 24
DS -1.77 6.27 -1.77 -1.77 0.1 24
DS 1.25 -0.75 5.25 -0.75 0.1 21
DS 1.25 5.25 5.25 5.25 0.1 21
DS 0.25 1.25 0.25 1.25 0.1 21
DS 0.25 1.25 0.255 3.25 0.1 21
DS 0.255 3.25 0.255 3.25 0.1 21
DS 6.245 1.25 6.245 1.25 0.1 21
DS 6.245 1.25 6.25 3.25 0.1 21
$PAD
Po 0.000 -0
Sh "1" C 1.540 1.540 0 0 900
Dr 0.99 0 0
At STD N 00E0FFFF
Ne 0 ""
$EndPAD
$PAD
Po 6.500 -0
Sh "2" C 1.540 1.540 0 0 900
Dr 0.99 0 0
At STD N 00E0FFFF
Ne 0 ""
$EndPAD
$PAD
Po 0.000 4.5
Sh "3" C 1.540 1.540 0 0 900
Dr 0.99 0 0
At STD N 00E0FFFF
Ne 0 ""
$EndPAD
$PAD
Po 6.500 4.5
Sh "4" C 1.540 1.540 0 0 900
Dr 0.99 0 0
At STD N 00E0FFFF
Ne 0 ""
$EndPAD
$EndMODULE 18259106
$EndLIBRARY
