PCBNEW-LibModule-V1  2021-06-04 21:13:11
# encoding utf-8
Units mm
$INDEX
RESC1005X40N
$EndINDEX
$MODULE RESC1005X40N
Po 0 0 0 15 60ba8957 00000000 ~~
Li RESC1005X40N
Cd CRCW0402HP
Kw Resistor
Sc 0
At SMD
AR 
Op 0 0 0
T0 0 0 1.27 1.27 0 0.254 N V 21 N "R**"
T1 0 0 1.27 1.27 0 0.254 N I 21 N "RESC1005X40N"
DS -1.15 -0.55 1.15 -0.55 0.05 24
DS 1.15 -0.55 1.15 0.55 0.05 24
DS 1.15 0.55 -1.15 0.55 0.05 24
DS -1.15 0.55 -1.15 -0.55 0.05 24
DS -0.5 -0.25 0.5 -0.25 0.1 24
DS 0.5 -0.25 0.5 0.25 0.1 24
DS 0.5 0.25 -0.5 0.25 0.1 24
DS -0.5 0.25 -0.5 -0.25 0.1 24
$PAD
Po -0.55 0
Sh "1" R 0.6 0.7 0 0 900
At SMD N 00888000
Ne 0 ""
$EndPAD
$PAD
Po 0.55 0
Sh "2" R 0.6 0.7 0 0 900
At SMD N 00888000
Ne 0 ""
$EndPAD
$EndMODULE RESC1005X40N
$EndLIBRARY
