PCBNEW-LibModule-V1  2021-06-04 19:34:33
# encoding utf-8
Units mm
$INDEX
TO127P203X417X859-3P
$EndINDEX
$MODULE TO127P203X417X859-3P
Po 0 0 0 15 60ba8049 00000000 ~~
Li TO127P203X417X859-3P
Cd HIH-4000-004
Kw Integrated Circuit
Sc 0
At STD
AR 
Op 0 0 0
T0 0 0 1.27 1.27 0 0.254 N V 21 N "IC**"
T1 0 0 1.27 1.27 0 0.254 N I 21 N "TO127P203X417X859-3P"
DS -1.065 -0.96 3.605 -0.96 0.05 24
DS 3.605 -0.96 3.605 1.57 0.05 24
DS 3.605 1.57 -1.065 1.57 0.05 24
DS -1.065 1.57 -1.065 -0.96 0.05 24
DS -0.815 -0.71 3.355 -0.71 0.1 24
DS 3.355 -0.71 3.355 1.32 0.1 24
DS 3.355 1.32 -0.815 1.32 0.1 24
DS -0.815 1.32 -0.815 -0.71 0.1 24
DS -0.815 -0.075 -0.18 -0.71 0.1 24
DS 3.355 1.32 3.355 -0.71 0.2 21
DS 3.355 -0.71 -0.815 -0.71 0.2 21
DS -0.815 -0.71 -0.815 0 0.2 21
$PAD
Po 0 0
Sh "1" R 1.14 1.14 0 0 900
Dr 0.74 0 0
At STD N 00E0FFFF
Ne 0 ""
$EndPAD
$PAD
Po 1.27 0
Sh "2" C 1.14 1.14 0 0 900
Dr 0.74 0 0
At STD N 00E0FFFF
Ne 0 ""
$EndPAD
$PAD
Po 2.54 0
Sh "3" C 1.14 1.14 0 0 900
Dr 0.74 0 0
At STD N 00E0FFFF
Ne 0 ""
$EndPAD
$EndMODULE TO127P203X417X859-3P
$EndLIBRARY
