PCBNEW-LibModule-V1  2021-06-04 20:32:05
# encoding utf-8
Units mm
$INDEX
LP0003A
$EndINDEX
$MODULE LP0003A
Po 0 0 0 15 60ba7fb5 00000000 ~~
Li LP0003A
Cd LP0003A
Kw Integrated Circuit
Sc 0
At STD
AR 
Op 0 0 0
T0 -0.518 1.038 1.27 1.27 0 0.254 N V 21 N "IC**"
T1 -0.518 1.038 1.27 1.27 0 0.254 N I 21 N "LP0003A"
DS -1.715 2.33 1.715 2.33 0.2 24
DS -2.41 1 -1.715 2.33 0.2 24
DS 2.41 1 1.715 2.33 0.2 24
DS -2.41 1 -1.715 2.33 0.2 21
DS -1.715 2.33 1.715 2.33 0.2 21
DS 1.715 2.33 2.41 1 0.2 21
DC -2.785 1.013 -2.83089 1.013 0.254 21
DA 0 1.06019 -2.41 1 1771 0.2 24
DA 0 1.06019 2.41 1 -1771 0.2 21
$PAD
Po -1.27 1
Sh "1" C 1.4 1.4 0 0 900
Dr 0.9 0 0
At STD N 00E0FFFF
Ne 0 ""
$EndPAD
$PAD
Po 0 0
Sh "2" C 1.4 1.4 0 0 900
Dr 0.9 0 0
At STD N 00E0FFFF
Ne 0 ""
$EndPAD
$PAD
Po 1.27 1
Sh "3" C 1.4 1.4 0 0 900
Dr 0.9 0 0
At STD N 00E0FFFF
Ne 0 ""
$EndPAD
$EndMODULE LP0003A
$EndLIBRARY
