PCBNEW-LibModule-V1  2021-06-05 19:29:32
# encoding utf-8
Units mm
$INDEX
SOIC127P599X175-8N
$EndINDEX
$MODULE SOIC127P599X175-8N
Po 0 0 0 15 60bbc28c 00000000 ~~
Li SOIC127P599X175-8N
Cd S8 Package 8-Lead Plastic Small Outline (Narrow .150 Inch)
Kw Integrated Circuit
Sc 0
At SMD
AR 
Op 0 0 0
T0 0 0 1.27 1.27 0 0.254 N V 21 N "IC**"
T1 0 0 1.27 1.27 0 0.254 N I 21 N "SOIC127P599X175-8N"
DS -3.725 -2.752 3.725 -2.752 0.05 24
DS 3.725 -2.752 3.725 2.752 0.05 24
DS 3.725 2.752 -3.725 2.752 0.05 24
DS -3.725 2.752 -3.725 -2.752 0.05 24
DS -1.95 -2.451 1.95 -2.451 0.1 24
DS 1.95 -2.451 1.95 2.451 0.1 24
DS 1.95 2.451 -1.95 2.451 0.1 24
DS -1.95 2.451 -1.95 -2.451 0.1 24
DS -1.95 -1.181 -0.68 -2.451 0.1 24
DS -1.6 -2.451 1.6 -2.451 0.2 21
DS 1.6 -2.451 1.6 2.451 0.2 21
DS 1.6 2.451 -1.6 2.451 0.2 21
DS -1.6 2.451 -1.6 -2.451 0.2 21
DS -3.475 -2.58 -1.95 -2.58 0.2 21
$PAD
Po -2.712 -1.905
Sh "1" R 0.65 1.526 0 0 900
At SMD N 00888000
Ne 0 ""
$EndPAD
$PAD
Po -2.712 -0.635
Sh "2" R 0.65 1.526 0 0 900
At SMD N 00888000
Ne 0 ""
$EndPAD
$PAD
Po -2.712 0.635
Sh "3" R 0.65 1.526 0 0 900
At SMD N 00888000
Ne 0 ""
$EndPAD
$PAD
Po -2.712 1.905
Sh "4" R 0.65 1.526 0 0 900
At SMD N 00888000
Ne 0 ""
$EndPAD
$PAD
Po 2.712 1.905
Sh "5" R 0.65 1.526 0 0 900
At SMD N 00888000
Ne 0 ""
$EndPAD
$PAD
Po 2.712 0.635
Sh "6" R 0.65 1.526 0 0 900
At SMD N 00888000
Ne 0 ""
$EndPAD
$PAD
Po 2.712 -0.635
Sh "7" R 0.65 1.526 0 0 900
At SMD N 00888000
Ne 0 ""
$EndPAD
$PAD
Po 2.712 -1.905
Sh "8" R 0.65 1.526 0 0 900
At SMD N 00888000
Ne 0 ""
$EndPAD
$EndMODULE SOIC127P599X175-8N
$EndLIBRARY
