PCBNEW-LibModule-V1  2021-06-04 16:21:30
# encoding utf-8
Units mm
$INDEX
OKI78SR515W36C
$EndINDEX
$MODULE OKI78SR515W36C
Po 0 0 0 15 60ba44fa 00000000 ~~
Li OKI78SR515W36C
Cd OKI-78SR-5/1.5-W36-C-1
Kw Power Supply
Sc 0
At STD
AR 
Op 0 0 0
T0 2.225 -0.95 1.27 1.27 0 0.254 N V 21 N "PS**"
T1 2.225 -0.95 1.27 1.27 0 0.254 N I 21 N "OKI78SR515W36C"
DS -2.85 -5.6 8.05 -5.6 0.2 24
DS 8.05 -5.6 8.05 3.7 0.2 24
DS 8.05 3.7 -2.85 3.7 0.2 24
DS -2.85 3.7 -2.85 -5.6 0.2 24
DS -2.85 -5.6 8.05 -5.6 0.1 21
DS 8.05 -5.6 8.05 3.7 0.1 21
DS 8.05 3.7 -2.85 3.7 0.1 21
DS -2.85 3.7 -2.85 -5.6 0.1 21
DS -4.6 -6.6 9.05 -6.6 0.1 24
DS 9.05 -6.6 9.05 4.7 0.1 24
DS 9.05 4.7 -4.6 4.7 0.1 24
DS -4.6 4.7 -4.6 -6.6 0.1 24
DS -3.5 -0 -3.5 -0 0.3 21
DS -3.6 -0 -3.6 -0 0.3 21
DA -3.55 -0 -3.500 -0 -1800 0.3 21
DA -3.55 -0 -3.600 -0 -1800 0.3 21
$PAD
Po 0.000 -0
Sh "1" C 1.519 1.519 0 0 900
Dr 1.08 0 0
At STD N 00E0FFFF
Ne 0 ""
$EndPAD
$PAD
Po 2.600 -0
Sh "2" C 1.519 1.519 0 0 900
Dr 1.08 0 0
At STD N 00E0FFFF
Ne 0 ""
$EndPAD
$PAD
Po 5.100 -0
Sh "3" C 1.519 1.519 0 0 900
Dr 1.08 0 0
At STD N 00E0FFFF
Ne 0 ""
$EndPAD
$EndMODULE OKI78SR515W36C
$EndLIBRARY
