(module RESC2012X60N (layer F.Cu) (tedit 0)
  (descr CR0805)
  (tags Resistor)
  (attr smd)
  (fp_text reference R** (at 0 0) (layer F.SilkS)
    (effects (font (size 1.27 1.27) (thickness 0.254)))
  )
  (fp_text value RESC2012X60N (at 0 0) (layer F.SilkS) hide
    (effects (font (size 1.27 1.27) (thickness 0.254)))
  )
  (fp_text user %R (at 0 0) (layer F.Fab)
    (effects (font (size 1.27 1.27) (thickness 0.254)))
  )
  (fp_line (start -1.7 -1) (end 1.7 -1) (layer F.CrtYd) (width 0.05))
  (fp_line (start 1.7 -1) (end 1.7 1) (layer F.CrtYd) (width 0.05))
  (fp_line (start 1.7 1) (end -1.7 1) (layer F.CrtYd) (width 0.05))
  (fp_line (start -1.7 1) (end -1.7 -1) (layer F.CrtYd) (width 0.05))
  (fp_line (start -1 -0.625) (end 1 -0.625) (layer F.Fab) (width 0.1))
  (fp_line (start 1 -0.625) (end 1 0.625) (layer F.Fab) (width 0.1))
  (fp_line (start 1 0.625) (end -1 0.625) (layer F.Fab) (width 0.1))
  (fp_line (start -1 0.625) (end -1 -0.625) (layer F.Fab) (width 0.1))
  (fp_line (start 0 -0.525) (end 0 0.525) (layer F.SilkS) (width 0.2))
  (pad 2 smd rect (at 0.95 0) (size 1 1.45) (layers F.Cu F.Paste F.Mask))
  (pad 1 smd rect (at -0.95 0) (size 1 1.45) (layers F.Cu F.Paste F.Mask))
  (model CR0805-JW-751ELF.stp
    (at (xyz 0 0 0))
    (scale (xyz 1 1 1))
    (rotate (xyz 0 0 0))
  )
)
